dumps/tb_reg_file_dump.vcd
$date
	Mon Oct  7 22:31:41 2019
$end
$version
	Icarus Verilog
$end
$timescale
	1s
$end
$scope module tb_reg_file $end
$var wire 16 ! rb_val [15:0] $end
$var wire 16 " ra_val [15:0] $end
$var wire 1 # o_rbw $end
$var reg 1 $ clk $end
$var reg 4 % i_dest [3:0] $end
$var reg 1 & r_ts $end
$var reg 4 ' ra_sel [3:0] $end
$var reg 4 ( rb_sel [3:0] $end
$var reg 4 ) rd_sel [3:0] $end
$var reg 16 * rd_val [15:0] $end
$var reg 1 + rs $end
$var reg 1 , w_ts $end
$var reg 1 - ws $end
$upscope $end
$scope module tb_reg_file $end
$scope module regs $end
$var wire 1 $ clk $end
$var wire 4 . i_dest [3:0] $end
$var wire 1 # o_rbw $end
$var wire 1 & r_ts $end
$var wire 4 / ra_sel [3:0] $end
$var wire 16 0 ra_val [15:0] $end
$var wire 4 1 rb_sel [3:0] $end
$var wire 16 2 rb_val [15:0] $end
$var wire 1 3 rbw_ra $end
$var wire 1 4 rbw_rb $end
$var wire 1 5 rbw_resolved $end
$var wire 4 6 rd_sel [3:0] $end
$var wire 16 7 rd_val [15:0] $end
$var wire 1 + rs $end
$var wire 1 , w_ts $end
$var wire 1 - ws $end
$var wire 1 8 ptr_rb $end
$var wire 1 9 ptr_ra $end
$var reg 16 : ra_fetched [15:0] $end
$var reg 16 ; rb_fetched [15:0] $end
$var reg 4 < rbw_tag [3:0] $end
$var reg 1 = rbw_valid $end
$upscope $end
$upscope $end
$enddefinitions $end
#0
$dumpvars
x=
bx <
bx ;
bx :
09
08
b1000000000 7
b0 6
x5
x4
x3
bx 2
b1000 1
bx 0
b100 /
b0 .
0-
0,
0+
b1000000000 *
b0 )
b1000 (
b100 '
0&
b0 %
0$
x#
bx "
bx !
$end
#2
0#
03
04
15
0=
b1 )
b1 6
b1001 (
b1001 1
b11 '
b11 /
1$
#3
1+
1-
#4
0$
#6
05
b1000000001 "
b1000000001 0
b1000000001 :
b1010 (
b1010 1
19
b10 '
b10 /
b1000000001 *
b1000000001 7
b10 )
b10 6
b1 %
b1 .
1=
b0 <
1$
#8
0$
#10
1#
13
b1000000000 "
b1000000000 0
b1000000000 :
b1 <
b1000000010 *
b1000000010 7
b11 )
b11 6
b10 %
b10 .
b1011 (
b1011 1
09
b1 '
b1 /
1$
#12
0$
#14
0#
03
bx "
bx 0
bx :
b1100 (
b1100 1
b0 '
b0 /
b1000000011 *
b1000000011 7
b100 )
b100 6
b11 %
b11 .
b10 <
1$
#16
0$
#18
b11 <
b1000000100 *
b1000000100 7
b101 )
b101 6
b100 %
b100 .
b1101 (
b1101 1
b1111 '
b1111 /
1$
#20
0$
#22
b1110 (
b1110 1
b1110 '
b1110 /
b1000000101 *
b1000000101 7
b110 )
b110 6
b101 %
b101 .
b100 <
1$
#24
0$
#26
b101 <
b1000000110 *
b1000000110 7
b111 )
b111 6
b110 %
b110 .
b1111 (
b1111 1
b1101 '
b1101 /
1$
#28
0$
#30
b0 (
b0 1
b1100 '
b1100 /
b1000000111 *
b1000000111 7
b1000 )
b1000 6
b111 %
b111 .
b110 <
1$
#32
0$
#34
b1000000000 !
b1000000000 2
b1000000000 ;
b111 <
b1000001000 *
b1000001000 7
b1001 )
b1001 6
b1000 %
b1000 .
b1 (
b1 1
b1011 '
b1011 /
1$
#36
0$
#38
b1000000001 !
b1000000001 2
b1000000001 ;
b1000001001 "
b1000001001 0
b1000001001 :
b10 (
b10 1
19
b1010 '
b1010 /
b1000001001 *
b1000001001 7
b1010 )
b1010 6
b1001 %
b1001 .
b1000 <
1$
#40
0$
#42
1#
13
b1000000010 !
b1000000010 2
b1000000010 ;
b1000001000 "
b1000001000 0
b1000001000 :
b1001 <
b1000001010 *
b1000001010 7
b1011 )
b1011 6
b1010 %
b1010 .
b11 (
b11 1
09
b1001 '
b1001 /
1$
#44
0$
#46
0#
03
b1000000011 !
b1000000011 2
b1000000011 ;
b1000000111 "
b1000000111 0
b1000000111 :
b100 (
b100 1
b1000 '
b1000 /
b1000001011 *
b1000001011 7
b1100 )
b1100 6
b1011 %
b1011 .
b1010 <
1$
#48
0$
#50
b1000000100 !
b1000000100 2
b1000000100 ;
b1000000110 "
b1000000110 0
b1000000110 :
b1011 <
b1000001100 *
b1000001100 7
b1101 )
b1101 6
b1100 %
b1100 .
b101 (
b101 1
b111 '
b111 /
1$
#52
0$
#54
b1000000101 !
b1000000101 2
b1000000101 ;
b1000000101 "
b1000000101 0
b1000000101 :
b110 (
b110 1
b110 '
b110 /
b1000001101 *
b1000001101 7
b1110 )
b1110 6
b1101 %
b1101 .
b1100 <
1$
#56
0$
#58
b1000000110 !
b1000000110 2
b1000000110 ;
b1000000100 "
b1000000100 0
b1000000100 :
b1101 <
b1000001110 *
b1000001110 7
b1111 )
b1111 6
b1110 %
b1110 .
b111 (
b111 1
b101 '
b101 /
1$
#60
0$
#62
b1000000111 !
b1000000111 2
b1000000111 ;
b1000000011 "
b1000000011 0
b1000000011 :
b1000 (
b1000 1
b100 '
b100 /
b1000001111 *
b1000001111 7
b0 )
b0 6
b1111 %
b1111 .
b1110 <
1$
#64
0$
#66
b1000001000 !
b1000001000 2
b1000001000 ;
b1000000010 "
b1000000010 0
b1000000010 :
b1111 <
b1000000000 *
b1000000000 7
b1 )
b1 6
b0 %
b0 .
b1001 (
b1001 1
b11 '
b11 /
1$
#68
0$
#70
b1000001001 !
b1000001001 2
b1000001001 ;
b1000000001 "
b1000000001 0
b1000000001 :
b1010 (
b1010 1
19
b10 '
b10 /
b1000000001 *
b1000000001 7
b10 )
b10 6
b1 %
b1 .
b0 <
1$
#72
0$
#74
1#
13
b1000001010 !
b1000001010 2
b1000001010 ;
b1000000000 "
b1000000000 0
b1000000000 :
b1 <
b1000000010 *
b1000000010 7
b11 )
b11 6
b10 %
b10 .
b1011 (
b1011 1
09
b1 '
b1 /
1$
#76
0$
#78
0#
b1000001011 !
b1000001011 2
b1000001011 ;
b1000001111 "
b1000001111 0
b1000001111 :
03
b1100 (
b1100 1
b0 '
b0 /
b1000000011 *
b1000000011 7
b100 )
b100 6
b11 %
b11 .
b10 <
1$
#80
0$
#82
b1000001100 !
b1000001100 2
b1000001100 ;
b1000001110 "
b1000001110 0
b1000001110 :
b11 <
b1000000100 *
b1000000100 7
b101 )
b101 6
b100 %
b100 .
b1101 (
b1101 1
b1111 '
b1111 /
1$
#84
0$
#86
b1000001101 !
b1000001101 2
b1000001101 ;
b1000001101 "
b1000001101 0
b1000001101 :
b1110 (
b1110 1
b1110 '
b1110 /
b1000000101 *
b1000000101 7
b110 )
b110 6
b101 %
b101 .
b100 <
1$
#88
0$
#90
b1000001110 !
b1000001110 2
b1000001110 ;
b1000001100 "
b1000001100 0
b1000001100 :
b101 <
b1000000110 *
b1000000110 7
b111 )
b111 6
b110 %
b110 .
b1111 (
b1111 1
b1101 '
b1101 /
1$
#92
0$
#94
b1000001111 !
b1000001111 2
b1000001111 ;
b1000001011 "
b1000001011 0
b1000001011 :
b0 (
b0 1
b1100 '
b1100 /
b1000000111 *
b1000000111 7
b1000 )
b1000 6
b111 %
b111 .
b110 <
1$
#96
0$
#98
b1000000000 !
b1000000000 2
b1000000000 ;
b1000001010 "
b1000001010 0
b1000001010 :
b111 <
b1000001000 *
b1000001000 7
b1001 )
b1001 6
b1000 %
b1000 .
b1 (
b1 1
b1011 '
b1011 /
1$
#100
0$
#102
b1000000001 !
b1000000001 2
b1000000001 ;
b1000001001 "
b1000001001 0
b1000001001 :
b10 (
b10 1
19
b1010 '
b1010 /
b1000001001 *
b1000001001 7
b1010 )
b1010 6
b1001 %
b1001 .
b1000 <
1$
#104
0$
#106
1#
13
b1000000010 !
b1000000010 2
b1000000010 ;
b1000001000 "
b1000001000 0
b1000001000 :
b1001 <
b1000001010 *
b1000001010 7
b1011 )
b1011 6
b1010 %
b1010 .
b11 (
b11 1
09
b1001 '
b1001 /
1$
#108
0$
#110
0#
b1000000011 !
b1000000011 2
b1000000011 ;
b1000000111 "
b1000000111 0
b1000000111 :
03
b100 (
b100 1
b1000 '
b1000 /
b1000001011 *
b1000001011 7
b1100 )
b1100 6
b1011 %
b1011 .
b1010 <
1$
#112
0$
#114
b1000000100 !
b1000000100 2
b1000000100 ;
b1000000110 "
b1000000110 0
b1000000110 :
b1011 <
b1000001100 *
b1000001100 7
b1101 )
b1101 6
b1100 %
b1100 .
b101 (
b101 1
b111 '
b111 /
1$
#116
0$
#118
b1000000101 !
b1000000101 2
b1000000101 ;
b1000000101 "
b1000000101 0
b1000000101 :
b110 (
b110 1
b110 '
b110 /
b1000001101 *
b1000001101 7
b1110 )
b1110 6
b1101 %
b1101 .
b1100 <
1$
#120
0$
#122
b1000000110 !
b1000000110 2
b1000000110 ;
b1000000100 "
b1000000100 0
b1000000100 :
b1101 <
b1000001110 *
b1000001110 7
b1111 )
b1111 6
b1110 %
b1110 .
b111 (
b111 1
b101 '
b101 /
1$
#124
0$
#126
b1000000111 !
b1000000111 2
b1000000111 ;
b1000000011 "
b1000000011 0
b1000000011 :
b1000 (
b1000 1
b100 '
b100 /
b1000001111 *
b1000001111 7
b0 )
b0 6
b1111 %
b1111 .
b1110 <
1$
